PartVII/ModifiedControlUnit/simulation/qsim/ModifiedControlUnit.msim.vcd
$comment
	File created using the following command:
		vcd file ModifiedControlUnit.msim.vcd -direction
$end
$date
	Sun Dec 03 15:27:57 2023
$end
$version
	ModelSim Version 10.1d
$end
$timescale
	1ps
$end
$scope module ModifiedControlUnit_vlg_vec_tst $end
$var reg 8 ! A [7:0] $end
$var reg 8 " B [7:0] $end
$var reg 1 # Clock $end
$var reg 1 $ ControlUnitIn $end
$var reg 1 % Reset $end
$var wire 1 & NEGATIVE $end
$var wire 1 ' ODDEVEN $end
$var wire 1 ( OUTR1 [3] $end
$var wire 1 ) OUTR1 [2] $end
$var wire 1 * OUTR1 [1] $end
$var wire 1 + OUTR1 [0] $end
$var wire 1 , OUTR2 [3] $end
$var wire 1 - OUTR2 [2] $end
$var wire 1 . OUTR2 [1] $end
$var wire 1 / OUTR2 [0] $end
$var wire 1 0 R1 [0] $end
$var wire 1 1 R1 [1] $end
$var wire 1 2 R1 [2] $end
$var wire 1 3 R1 [3] $end
$var wire 1 4 R1 [4] $end
$var wire 1 5 R1 [5] $end
$var wire 1 6 R1 [6] $end
$var wire 1 7 R2 [0] $end
$var wire 1 8 R2 [1] $end
$var wire 1 9 R2 [2] $end
$var wire 1 : R2 [3] $end
$var wire 1 ; R2 [4] $end
$var wire 1 < R2 [5] $end
$var wire 1 = R2 [6] $end
$var wire 1 > SID_ODD [0] $end
$var wire 1 ? SID_ODD [1] $end
$var wire 1 @ SID_ODD [2] $end
$var wire 1 A SID_ODD [3] $end
$var wire 1 B SID_ODD [4] $end
$var wire 1 C SID_ODD [5] $end
$var wire 1 D SID_ODD [6] $end
$var wire 1 E Sign [0] $end
$var wire 1 F Sign [1] $end
$var wire 1 G Sign [2] $end
$var wire 1 H Sign [3] $end
$var wire 1 I Sign [4] $end
$var wire 1 J Sign [5] $end
$var wire 1 K Sign [6] $end
$var wire 1 L Student_ID [0] $end
$var wire 1 M Student_ID [1] $end
$var wire 1 N Student_ID [2] $end
$var wire 1 O Student_ID [3] $end
$var wire 1 P Student_ID [4] $end
$var wire 1 Q Student_ID [5] $end
$var wire 1 R Student_ID [6] $end
$var wire 1 S STUDENTID [3] $end
$var wire 1 T STUDENTID [2] $end
$var wire 1 U STUDENTID [1] $end
$var wire 1 V STUDENTID [0] $end
$var wire 1 W sampler $end
$scope module i1 $end
$var wire 1 X gnd $end
$var wire 1 Y vcc $end
$var wire 1 Z unknown $end
$var tri1 1 [ devclrn $end
$var tri1 1 \ devpor $end
$var tri1 1 ] devoe $end
$var wire 1 ^ inst3|Add1~0_combout $end
$var wire 1 _ inst3|Add1~2_combout $end
$var wire 1 ` inst3|Add1~8_combout $end
$var wire 1 a inst3|Selector7~4_combout $end
$var wire 1 b inst3|Selector7~7_combout $end
$var wire 1 c inst3|Result~20_combout $end
$var wire 1 d inst3|Result~28_combout $end
$var wire 1 e inst3|Result~29_combout $end
$var wire 1 f inst3|Selector0~11_combout $end
$var wire 1 g Clock~combout $end
$var wire 1 h Reset~combout $end
$var wire 1 i inst|Q[5]~feeder_combout $end
$var wire 1 j inst3|LessThan0~1_cout $end
$var wire 1 k inst3|LessThan0~3_cout $end
$var wire 1 l inst3|LessThan0~5_cout $end
$var wire 1 m inst3|LessThan0~7_cout $end
$var wire 1 n inst3|LessThan0~9_cout $end
$var wire 1 o inst3|LessThan0~11_cout $end
$var wire 1 p inst3|LessThan0~13_cout $end
$var wire 1 q inst3|LessThan0~14_combout $end
$var wire 1 r inst3|Neg~0_combout $end
$var wire 1 s inst3|Neg~regout $end
$var wire 1 t ControlUnitIn~combout $end
$var wire 1 u inst2|inst2|yfsm.s5~regout $end
$var wire 1 v inst2|inst2|yfsm.s6~regout $end
$var wire 1 w inst2|inst2|yfsm.s7~regout $end
$var wire 1 x inst2|inst2|yfsm.s8~feeder_combout $end
$var wire 1 y inst2|inst2|yfsm.s8~regout $end
$var wire 1 z inst2|inst2|yfsm.s0~0_combout $end
$var wire 1 { inst2|inst2|yfsm.s0~regout $end
$var wire 1 | inst2|inst2|yfsm.s1~0_combout $end
$var wire 1 } inst2|inst2|yfsm.s1~regout $end
$var wire 1 ~ inst2|inst2|yfsm.s2~regout $end
$var wire 1 !! inst2|inst2|yfsm.s3~feeder_combout $end
$var wire 1 "! inst2|inst2|yfsm.s3~regout $end
$var wire 1 #! inst2|inst2|yfsm.s4~regout $end
$var wire 1 $! inst2|inst2|WideOr12~0_combout $end
$var wire 1 %! inst3|Result~11_combout $end
$var wire 1 &! inst3|Result[3]~8_combout $end
$var wire 1 '! inst2|inst2|WideOr10~0_combout $end
$var wire 1 (! inst3|Result[3]~9_combout $end
$var wire 1 )! inst3|Add0~1 $end
$var wire 1 *! inst3|Add0~3 $end
$var wire 1 +! inst3|Add0~5 $end
$var wire 1 ,! inst3|Add0~6_combout $end
$var wire 1 -! inst3|Add1~1 $end
$var wire 1 .! inst3|Add1~3 $end
$var wire 1 /! inst3|Add1~5 $end
$var wire 1 0! inst3|Add1~6_combout $end
$var wire 1 1! inst3|Selector4~0_combout $end
$var wire 1 2! inst3|Selector4~1_combout $end
$var wire 1 3! inst3|Selector4~2_combout $end
$var wire 1 4! inst3|Selector4~3_combout $end
$var wire 1 5! inst3|Result[3]~0_combout $end
$var wire 1 6! inst3|Result~12_combout $end
$var wire 1 7! inst3|Result~13_combout $end
$var wire 1 8! inst3|Add1~4_combout $end
$var wire 1 9! inst3|Add0~4_combout $end
$var wire 1 :! inst3|Selector5~0_combout $end
$var wire 1 ;! inst3|Result~14_combout $end
$var wire 1 <! inst3|Selector5~1_combout $end
$var wire 1 =! inst3|Selector5~2_combout $end
$var wire 1 >! inst3|Selector5~3_combout $end
$var wire 1 ?! inst3|Result[2]~1_combout $end
$var wire 1 @! inst3|Result~15_combout $end
$var wire 1 A! inst3|Result~16_combout $end
$var wire 1 B! inst3|Add0~2_combout $end
$var wire 1 C! inst3|Result[3]~10_combout $end
$var wire 1 D! inst3|Selector6~0_combout $end
$var wire 1 E! inst3|Selector6~1_combout $end
$var wire 1 F! inst3|Selector6~2_combout $end
$var wire 1 G! inst3|Selector6~3_combout $end
$var wire 1 H! inst3|Result[1]~2_combout $end
$var wire 1 I! inst3|Result~17_combout $end
$var wire 1 J! inst3|Selector7~5_combout $end
$var wire 1 K! inst3|Selector7~3_combout $end
$var wire 1 L! inst3|Result~18_combout $end
$var wire 1 M! inst3|Selector7~0_combout $end
$var wire 1 N! inst3|Add0~0_combout $end
$var wire 1 O! inst3|Selector7~1_combout $end
$var wire 1 P! inst3|Selector7~2_combout $end
$var wire 1 Q! inst3|Selector7~6_combout $end
$var wire 1 R! inst3|Result[0]~3_combout $end
$var wire 1 S! inst3|Add0~0_wirecell_combout $end
$var wire 1 T! inst3|Selector0~12_combout $end
$var wire 1 U! inst3|Selector0~13_combout $end
$var wire 1 V! inst3|Add1~7 $end
$var wire 1 W! inst3|Add1~9 $end
$var wire 1 X! inst3|Add1~11 $end
$var wire 1 Y! inst3|Add1~13 $end
$var wire 1 Z! inst3|Add1~14_combout $end
$var wire 1 [! inst3|Add0~7 $end
$var wire 1 \! inst3|Add0~9 $end
$var wire 1 ]! inst3|Add0~11 $end
$var wire 1 ^! inst3|Add0~13 $end
$var wire 1 _! inst3|Add0~14_combout $end
$var wire 1 `! inst3|Selector0~8_combout $end
$var wire 1 a! inst3|Selector0~9_combout $end
$var wire 1 b! inst3|Selector0~10_combout $end
$var wire 1 c! inst3|Result[7]~4_combout $end
$var wire 1 d! inst3|Result~19_combout $end
$var wire 1 e! inst3|Result[6]~22_combout $end
$var wire 1 f! inst3|Result[6]~23_combout $end
$var wire 1 g! inst3|Add1~12_combout $end
$var wire 1 h! inst3|Add0~12_combout $end
$var wire 1 i! inst3|Result[6]~24_combout $end
$var wire 1 j! inst3|Result[6]~25_combout $end
$var wire 1 k! inst3|Result[6]~21_combout $end
$var wire 1 l! inst3|Result[6]~5_combout $end
$var wire 1 m! inst3|Result[6]~feeder_combout $end
$var wire 1 n! inst3|Result~26_combout $end
$var wire 1 o! inst3|Result~27_combout $end
$var wire 1 p! inst3|Add1~10_combout $end
$var wire 1 q! inst3|Add0~10_combout $end
$var wire 1 r! inst3|Selector2~0_combout $end
$var wire 1 s! inst3|Selector2~1_combout $end
$var wire 1 t! inst3|Selector2~2_combout $end
$var wire 1 u! inst3|Selector2~3_combout $end
$var wire 1 v! inst3|Result[5]~6_combout $end
$var wire 1 w! inst3|Result~30_combout $end
$var wire 1 x! inst3|Add0~8_combout $end
$var wire 1 y! inst3|Selector3~0_combout $end
$var wire 1 z! inst3|Selector3~1_combout $end
$var wire 1 {! inst3|Selector3~2_combout $end
$var wire 1 |! inst3|Selector3~3_combout $end
$var wire 1 }! inst3|Result[4]~7_combout $end
$var wire 1 ~! inst3|Result~31_combout $end
$var wire 1 !" inst4|Mux0~0_combout $end
$var wire 1 "" inst4|Mux1~0_combout $end
$var wire 1 #" inst4|Mux2~0_combout $end
$var wire 1 $" inst4|Mux3~0_combout $end
$var wire 1 %" inst4|Mux4~0_combout $end
$var wire 1 &" inst4|Mux5~0_combout $end
$var wire 1 '" inst4|Mux6~0_combout $end
$var wire 1 (" inst7|Mux0~0_combout $end
$var wire 1 )" inst7|Mux1~0_combout $end
$var wire 1 *" inst7|Mux2~0_combout $end
$var wire 1 +" inst7|Mux3~0_combout $end
$var wire 1 ," inst7|Mux4~0_combout $end
$var wire 1 -" inst7|Mux5~0_combout $end
$var wire 1 ." inst7|Mux6~0_combout $end
$var wire 1 /" inst2|inst2|WideOr12~1_combout $end
$var wire 1 0" inst5|Mux0~0_combout $end
$var wire 1 1" inst5|Mux1~0_combout $end
$var wire 1 2" inst5|Mux4~0_combout $end
$var wire 1 3" inst5|Mux5~4_combout $end
$var wire 1 4" inst5|Mux6~0_combout $end
$var wire 1 5" inst1|Q [7] $end
$var wire 1 6" inst1|Q [6] $end
$var wire 1 7" inst1|Q [5] $end
$var wire 1 8" inst1|Q [4] $end
$var wire 1 9" inst1|Q [3] $end
$var wire 1 :" inst1|Q [2] $end
$var wire 1 ;" inst1|Q [1] $end
$var wire 1 <" inst1|Q [0] $end
$var wire 1 =" inst3|Result [7] $end
$var wire 1 >" inst3|Result [6] $end
$var wire 1 ?" inst3|Result [5] $end
$var wire 1 @" inst3|Result [4] $end
$var wire 1 A" inst3|Result [3] $end
$var wire 1 B" inst3|Result [2] $end
$var wire 1 C" inst3|Result [1] $end
$var wire 1 D" inst3|Result [0] $end
$var wire 1 E" inst|Q [7] $end
$var wire 1 F" inst|Q [6] $end
$var wire 1 G" inst|Q [5] $end
$var wire 1 H" inst|Q [4] $end
$var wire 1 I" inst|Q [3] $end
$var wire 1 J" inst|Q [2] $end
$var wire 1 K" inst|Q [1] $end
$var wire 1 L" inst|Q [0] $end
$var wire 1 M" inst2|inst2|student_id [3] $end
$var wire 1 N" inst2|inst2|student_id [2] $end
$var wire 1 O" inst2|inst2|student_id [1] $end
$var wire 1 P" inst2|inst2|student_id [0] $end
$var wire 1 Q" B~combout [7] $end
$var wire 1 R" B~combout [6] $end
$var wire 1 S" B~combout [5] $end
$var wire 1 T" B~combout [4] $end
$var wire 1 U" B~combout [3] $end
$var wire 1 V" B~combout [2] $end
$var wire 1 W" B~combout [1] $end
$var wire 1 X" B~combout [0] $end
$var wire 1 Y" A~combout [7] $end
$var wire 1 Z" A~combout [6] $end
$var wire 1 [" A~combout [5] $end
$var wire 1 \" A~combout [4] $end
$var wire 1 ]" A~combout [3] $end
$var wire 1 ^" A~combout [2] $end
$var wire 1 _" A~combout [1] $end
$var wire 1 `" A~combout [0] $end
$upscope $end
$upscope $end
$enddefinitions $end
#0
$dumpvars
b10010 !
b1010000 "
0#
0$
0%
0&
1'
0+
0*
0)
0(
0/
0.
0-
0,
16
05
04
03
02
01
00
1=
0<
0;
0:
09
08
07
1D
1C
0B
1A
1@
1?
0>
1K
1J
1I
1H
1G
1F
1E
0R
0Q
1P
0O
0N
1M
0L
1V
0U
1T
0S
xW
0X
1Y
xZ
1[
1\
1]
0^
0_
0`
1a
0b
0c
0d
0e
1f
0g
0h
0i
0j
1k
0l
1m
0n
1o
0p
0q
0r
0s
0t
0u
0v
0w
0x
0y
1z
0{
1|
0}
0~
0!!
0"!
0#!
0$!
0%!
0&!
1'!
0(!
0)!
1*!
0+!
0,!
1-!
0.!
1/!
00!
01!
02!
03!
04!
05!
16!
07!
08!
09!
0:!
0;!
0<!
0=!
0>!
0?!
1@!
0A!
0B!
0C!
0D!
0E!
0F!
0G!
0H!
1I!
1J!
0K!
0L!
1M!
0N!
0O!
0P!
0Q!
0R!
1S!
1T!
0U!
0V!
1W!
0X!
1Y!
0Z!
1[!
0\!
1]!
0^!
0_!
0`!
0a!
0b!
0c!
1d!
1e!
1f!
0g!
0h!
0i!
0j!
0k!
0l!
0m!
1n!
1o!
0p!
0q!
0r!
0s!
0t!
0u!
0v!
0w!
0x!
0y!
0z!
0{!
0|!
0}!
1~!
0!"
0""
0#"
0$"
0%"
0&"
0'"
0("
0)"
0*"
0+"
0,"
0-"
0."
1/"
10"
11"
02"
03"
04"
0<"
0;"
0:"
09"
08"
07"
06"
05"
0D"
0C"
0B"
0A"
0@"
0?"
0>"
0="
0L"
0K"
0J"
0I"
0H"
0G"
0F"
0E"
zP"
zO"
1N"
zM"
0X"
0W"
0V"
0U"
1T"
0S"
1R"
0Q"
0`"
1_"
0^"
0]"
1\"
0["
0Z"
0Y"
$end
#5000
1#
1g
0W
18"
1K"
1H"
16"
1w!
1\!
0I!
1A!
1B!
1_
0n!
0e!
1h!
0Y!
1g!
1p
1q!
1D!
1i!
1Z!
1q
1r!
1E!
1j!
1s!
1F!
1l!
1t!
1G!
1m!
1u!
1H!
1v!
#10000
1$
0#
1t
0g
1W
#15000
1#
1g
0W
1?"
1>"
1C"
1}
1{
1."
1)"
1'"
1&"
1#"
01"
0/"
0M!
1C!
1$!
1r
0a
14"
0N"
0|
1.
1-
1*
12"
0s!
0r!
1`!
0T!
18
15
12
0M
1B
1R
0T
0=
06
0'
0?
0A
0C
0V
0t!
1a!
0P
0u!
1b!
0v!
1c!
#20000
0#
0g
1W
#25000
1#
1g
0W
0?"
1="
1~
0}
1s
0."
1*"
0'!
1!!
0f
13"
1/"
1M!
0C!
0$!
0r
0.
1,
1&
0K
1u!
1k!
0f!
1O!
0F!
1=!
13!
0a!
02"
00"
1r!
0`!
1T!
19
1Q
0B
1=
1'
1?
1A
1C
1V
1v!
1P!
0G!
1>!
14!
1s!
1P
1L
1O
1Q!
0H!
1?!
15!
1R!
#30000
0#
0g
1W
#35000
1#
1g
0W
1?"
1D"
0C"
1B"
1A"
1"!
0~
0s
1."
0#"
1!"
0M!
1C!
1&!
0!!
1.
1+
0*
1)
1(
0&
1K
0s!
0r!
1e!
1`!
0T!
1{!
1t!
0j!
1U!
1G!
1F!
1f
02
10
0=
1j!
1a!
1H!
#40000
0#
0g
1W
#45000
1#
1g
0W
1C"
1#!
0"!
0&"
1$"
1#"
1""
0!"
04"
03"
12"
10"
1K!
0J!
1(!
1$!
1M!
0C!
1'!
0&!
0f
1a
1*
1S
1r!
1f!
0a!
0E!
0D!
1:!
12!
0O!
0e!
0`!
1T!
0{!
0t!
0k!
0=!
03!
1|!
0U!
1f
05
13
12
11
00
0R
0Q
1B
0P
0L
0O
0'
0?
0A
0C
0V
1s!
0b!
0F!
1<!
13!
0P!
0f!
1U!
0|!
0u!
0>!
04!
1}!
1t!
0c!
0G!
1=!
14!
0l!
1a!
0}!
0v!
0?!
05!
1u!
0H!
1>!
15!
0m!
1b!
1v!
1?!
1c!
#50000
0#
0g
1W
#55000
1#
1g
0W
0>"
0C"
0#!
1u
1+"
0*"
0)"
1&"
0$"
0#"
0""
1!"
14"
13"
02"
00"
0K!
1J!
0$!
0R!
1C!
0-
0*
0S
0Q!
1y!
0s!
1`!
0T!
1D!
0<!
11!
1:
09
08
15
03
02
01
10
1R
1Q
0B
1P
1L
1O
1'
1?
1A
1C
1V
1z!
0t!
0U!
0=!
02!
1{!
0u!
0a!
0>!
03!
1|!
0v!
0b!
0?!
04!
1}!
0c!
05!
#60000
0#
0g
1W
#65000
1#
1g
0W
1@"
0?"
0="
0D"
0B"
0A"
1v
0u
0."
1-"
1,"
1("
0'"
0&"
0!"
04"
12"
10"
1&!
1$!
0C!
0(!
1/
0.
0,
0+
0)
0(
1U
1N
0|!
0{!
1l!
0j!
1e!
1U!
1G!
0f
0y!
1s!
0`!
1T!
1<!
0:!
01!
1f!
1a!
1E!
12!
1<
1;
17
05
00
0R
1B
1=
16
0P
0L
0O
0'
0?
0A
0C
0V
0}!
1m!
0l!
1j!
0a!
1H!
0z!
0<!
02!
1b!
0m!
1l!
0b!
1c!
1m!
0c!
#70000
0#
0g
1W
#75000
1#
1g
0W
0@"
1>"
1C"
1w
0v
1."
0-"
1'"
1&"
1#"
11"
1N"
1}!
1k!
0f!
0J!
1x
02"
00"
0&!
0$!
0/
1-
1*
0U
0N
03"
10"
1t!
0e!
0U!
0G!
1F!
1f
0<
15
12
1M
1T
0B
0=
06
1P
1L
1O
1'
1?
1A
1C
1V
1u!
1G!
0Q
0L
0O
#80000
0#
0g
1W
#85000
1#
1g
0W
1@"
1y
0w
0+"
1)"
0("
01"
0/"
1$!
0z
14"
0N"
0}!
1v!
0k!
1f!
1J!
0x
1/
12"
0:
18
07
0M
1B
1R
0T
0'
0?
0A
0C
0V
0P
#90000
0#
0g
1W
#95000
1#
1g
0W
1?"
0>"
1="
1D"
0C"
1B"
1A"
0{
0y
0,"
1("
0#"
1!"
04"
11"
1N"
1|
13"
1/"
0$!
1z
1.
0-
1,
1+
0*
1)
1(
03"
02"
0;
17
02
10
0R
1M
1T
1Q
0B
1'
1?
1A
1C
1V
0Q
1P
#100000
0#
0g
1W
#105000
1#
1g
0W
0@"
1>"
0="
0D"
1C"
0B"
0A"
1}
1{
0("
1#"
0!"
01"
0/"
0M!
1C!
1$!
1r
0a
14"
0N"
0|
0/
1-
0,
0+
1*
0)
0(
12"
0s!
0r!
1`!
0T!
07
12
00
0M
1B
1R
0T
0'
0?
0A
0C
0V
0t!
1a!
0P
0u!
1b!
0v!
1c!
