ALU_4/simulation/qsim/ALU_4.msim.vcd
$comment
	File created using the following command:
		vcd file ALU_4.msim.vcd -direction
$end
$date
	Mon Nov 27 20:11:29 2023
$end
$version
	ModelSim Version 10.1d
$end
$timescale
	1ps
$end
$scope module ALU_4_vlg_vec_tst $end
$var reg 8 ! A [7:0] $end
$var reg 8 " B [7:0] $end
$var reg 1 # Clock $end
$var reg 16 $ OP [15:0] $end
$var reg 4 % student_id [3:0] $end
$var wire 1 & Neg $end
$var wire 1 ' R1 [3] $end
$var wire 1 ( R1 [2] $end
$var wire 1 ) R1 [1] $end
$var wire 1 * R1 [0] $end
$var wire 1 + R2 [3] $end
$var wire 1 , R2 [2] $end
$var wire 1 - R2 [1] $end
$var wire 1 . R2 [0] $end
$var wire 1 / sampler $end
$scope module i1 $end
$var wire 1 0 gnd $end
$var wire 1 1 vcc $end
$var wire 1 2 unknown $end
$var tri1 1 3 devclrn $end
$var tri1 1 4 devpor $end
$var tri1 1 5 devoe $end
$var wire 1 6 Add1~0_combout $end
$var wire 1 7 Add0~2_combout $end
$var wire 1 8 Add1~4_combout $end
$var wire 1 9 Add0~8_combout $end
$var wire 1 : Add1~8_combout $end
$var wire 1 ; Add0~10_combout $end
$var wire 1 < Add0~12_combout $end
$var wire 1 = Add1~13 $end
$var wire 1 > Add1~14_combout $end
$var wire 1 ? Equal4~0_combout $end
$var wire 1 @ Equal4~1_combout $end
$var wire 1 A Selector7~0_combout $end
$var wire 1 B Selector7~1_combout $end
$var wire 1 C Selector7~2_combout $end
$var wire 1 D Selector6~2_combout $end
$var wire 1 E Selector6~3_combout $end
$var wire 1 F Selector6~4_combout $end
$var wire 1 G Selector5~1_combout $end
$var wire 1 H Selector4~0_combout $end
$var wire 1 I Selector4~4_combout $end
$var wire 1 J Selector3~5_combout $end
$var wire 1 K Selector2~1_combout $end
$var wire 1 L Selector2~2_combout $end
$var wire 1 M Selector2~3_combout $end
$var wire 1 N Selector2~4_combout $end
$var wire 1 O Selector1~1_combout $end
$var wire 1 P Result~1_combout $end
$var wire 1 Q Selector1~4_combout $end
$var wire 1 R Selector0~2_combout $end
$var wire 1 S Selector0~3_combout $end
$var wire 1 T Clock~combout $end
$var wire 1 U Clock~clkctrl_outclk $end
$var wire 1 V Equal0~1_combout $end
$var wire 1 W Equal0~0_combout $end
$var wire 1 X Equal0~2_combout $end
$var wire 1 Y Equal3~0_combout $end
$var wire 1 Z Equal1~0_combout $end
$var wire 1 [ Equal7~0_combout $end
$var wire 1 \ Equal8~0_combout $end
$var wire 1 ] Equal5~0_combout $end
$var wire 1 ^ Equal5~1_combout $end
$var wire 1 _ WideNor0~2_combout $end
$var wire 1 ` Equal1~1_combout $end
$var wire 1 a Equal1~2_combout $end
$var wire 1 b Equal4~2_combout $end
$var wire 1 c Equal4~3_combout $end
$var wire 1 d WideNor0~3_combout $end
$var wire 1 e Selector7~3_combout $end
$var wire 1 f Add0~0_combout $end
$var wire 1 g Equal0~3_combout $end
$var wire 1 h Equal0~4_combout $end
$var wire 1 i WideNor0~1_combout $end
$var wire 1 j Selector7~4_combout $end
$var wire 1 k Selector7~5_combout $end
$var wire 1 l Add1~1 $end
$var wire 1 m Add1~2_combout $end
$var wire 1 n Selector6~5_combout $end
$var wire 1 o Selector6~1_combout $end
$var wire 1 p WideNor0~0_combout $end
$var wire 1 q Selector6~0_combout $end
$var wire 1 r Selector6~6_combout $end
$var wire 1 s Equal6~0_combout $end
$var wire 1 t Selector5~4_combout $end
$var wire 1 u Selector5~5_combout $end
$var wire 1 v Equal3~1_combout $end
$var wire 1 w Selector5~2_combout $end
$var wire 1 x Add0~1 $end
$var wire 1 y Add0~3 $end
$var wire 1 z Add0~4_combout $end
$var wire 1 { Selector5~3_combout $end
$var wire 1 | Selector5~0_combout $end
$var wire 1 } Selector5~6_combout $end
$var wire 1 ~ Add1~3 $end
$var wire 1 !! Add1~5 $end
$var wire 1 "! Add1~6_combout $end
$var wire 1 #! Selector4~5_combout $end
$var wire 1 $! Selector4~2_combout $end
$var wire 1 %! Add0~5 $end
$var wire 1 &! Add0~6_combout $end
$var wire 1 '! Selector4~3_combout $end
$var wire 1 (! Selector4~1_combout $end
$var wire 1 )! Selector4~6_combout $end
$var wire 1 *! Selector3~2_combout $end
$var wire 1 +! Selector3~1_combout $end
$var wire 1 ,! Selector3~3_combout $end
$var wire 1 -! Result~0_combout $end
$var wire 1 .! Selector3~4_combout $end
$var wire 1 /! Selector3~0_combout $end
$var wire 1 0! Selector3~6_combout $end
$var wire 1 1! Selector2~0_combout $end
$var wire 1 2! Add1~7 $end
$var wire 1 3! Add1~9 $end
$var wire 1 4! Add1~10_combout $end
$var wire 1 5! Selector2~5_combout $end
$var wire 1 6! Selector2~6_combout $end
$var wire 1 7! Selector1~0_combout $end
$var wire 1 8! Selector1~2_combout $end
$var wire 1 9! Selector1~3_combout $end
$var wire 1 :! Add1~11 $end
$var wire 1 ;! Add1~12_combout $end
$var wire 1 <! Selector1~5_combout $end
$var wire 1 =! Selector1~6_combout $end
$var wire 1 >! Add0~7 $end
$var wire 1 ?! Add0~9 $end
$var wire 1 @! Add0~11 $end
$var wire 1 A! Add0~13 $end
$var wire 1 B! Add0~14_combout $end
$var wire 1 C! Equal2~0_combout $end
$var wire 1 D! Selector0~1_combout $end
$var wire 1 E! Selector0~0_combout $end
$var wire 1 F! Selector0~4_combout $end
$var wire 1 G! Selector0~5_combout $end
$var wire 1 H! A~combout [7] $end
$var wire 1 I! A~combout [6] $end
$var wire 1 J! A~combout [5] $end
$var wire 1 K! A~combout [4] $end
$var wire 1 L! A~combout [3] $end
$var wire 1 M! A~combout [2] $end
$var wire 1 N! A~combout [1] $end
$var wire 1 O! A~combout [0] $end
$var wire 1 P! OP~combout [15] $end
$var wire 1 Q! OP~combout [14] $end
$var wire 1 R! OP~combout [13] $end
$var wire 1 S! OP~combout [12] $end
$var wire 1 T! OP~combout [11] $end
$var wire 1 U! OP~combout [10] $end
$var wire 1 V! OP~combout [9] $end
$var wire 1 W! OP~combout [8] $end
$var wire 1 X! OP~combout [7] $end
$var wire 1 Y! OP~combout [6] $end
$var wire 1 Z! OP~combout [5] $end
$var wire 1 [! OP~combout [4] $end
$var wire 1 \! OP~combout [3] $end
$var wire 1 ]! OP~combout [2] $end
$var wire 1 ^! OP~combout [1] $end
$var wire 1 _! OP~combout [0] $end
$var wire 1 `! B~combout [7] $end
$var wire 1 a! B~combout [6] $end
$var wire 1 b! B~combout [5] $end
$var wire 1 c! B~combout [4] $end
$var wire 1 d! B~combout [3] $end
$var wire 1 e! B~combout [2] $end
$var wire 1 f! B~combout [1] $end
$var wire 1 g! B~combout [0] $end
$var wire 1 h! Result [7] $end
$var wire 1 i! Result [6] $end
$var wire 1 j! Result [5] $end
$var wire 1 k! Result [4] $end
$var wire 1 l! Result [3] $end
$var wire 1 m! Result [2] $end
$var wire 1 n! Result [1] $end
$var wire 1 o! Result [0] $end
$upscope $end
$upscope $end
$enddefinitions $end
#0
$dumpvars
b1010101 !
b10000011 "
0#
b1 $
b0 %
0&
0*
0)
0(
0'
0.
0-
0,
0+
x/
00
11
x2
13
14
15
06
07
08
19
1:
0;
1<
1=
1>
1?
0@
0A
0B
0C
0D
0E
0F
0G
0H
0I
0J
0K
0L
0M
0N
1O
1P
0Q
0R
0S
0T
0U
1V
1W
1X
1Y
0Z
0[
0\
0]
0^
1_
0`
0a
0b
0c
1d
0e
0f
1g
1h
0i
0j
0k
1l
1m
0n
0o
1p
0q
0r
0s
0t
0u
0v
0w
1x
0y
0z
0{
0|
0}
1~
1!!
0"!
0#!
0$!
1%!
1&!
1'!
0(!
1)!
0*!
1+!
1,!
1-!
0.!
0/!
10!
01!
02!
13!
04!
05!
06!
07!
08!
19!
0:!
1;!
0<!
1=!
1>!
0?!
1@!
0A!
1B!
0C!
1D!
0E!
0F!
1G!
1O!
0N!
1M!
0L!
1K!
0J!
1I!
0H!
1_!
0^!
0]!
0\!
0[!
0Z!
0Y!
0X!
0W!
0V!
0U!
0T!
0S!
0R!
0Q!
0P!
1g!
1f!
0e!
0d!
0c!
0b!
0a!
1`!
0o!
0n!
0m!
0l!
0k!
0j!
0i!
0h!
$end
#5000
1#
1T
1U
0/
1h!
1i!
1k!
1l!
1+
1,
1.
1'
#10000
b11 $
b10 $
0#
0_!
1^!
0T
0U
1/
0g
1Z
1@
1`
0X
0?
0h
1a
1b
0@
0D!
0+!
0'!
1i
0O
1<!
1n
1S
1J
0b
0,!
0)!
09!
1r
#15000
1#
1T
1U
0/
0l!
1n!
0'
1)
#20000
b110 $
b100 $
0#
0^!
1]!
0T
0U
1/
0`
1X
1?
0Z
0a
1@
0<!
0n
0d
0S
0J
1C!
0p
0=!
0r
0G!
00!
1D!
11!
1q
0_
1H
1G!
16!
1r
1d
1)!
#25000
1#
1T
1U
0/
0i!
1j!
0k!
1l!
0,
1-
0.
1'
#30000
b1100 $
b1000 $
0#
0]!
1\!
0T
0U
1/
0C!
1v
0D!
1+!
1$!
1w
1R
1O
1K
0G!
1,!
1'!
1{
1S
19!
1M
10!
1}
1G!
1=!
#35000
1#
1T
1U
0/
1i!
1k!
1m!
1,
1.
1(
#40000
b11000 $
b10000 $
0#
0\!
1[!
0T
0U
1/
0v
1p
1b
1Z
0Y
0+!
0$!
0w
0R
0O
0K
01!
0q
1_
0H
1c
0Z
0,!
0'!
0{
0S
09!
0M
0r
11!
1H
00!
0}
0G!
0=!
#45000
1#
1T
1U
0/
0h!
0i!
0k!
0m!
0n!
0+
0,
0.
0(
0)
#50000
b110000 $
b100000 $
0#
0[!
1Z!
0T
0U
1/
0c
1]
0b
01!
0d
0H
1^
06!
0)!
1e
0_
1j
1d
1k
#55000
1#
1T
1U
0/
0j!
0l!
1o!
0-
0'
1*
#60000
b1100000 $
b1000000 $
0#
0Z!
1Y!
0T
0U
1/
1b
0]
1.!
1s
0i
1Q
0^
10!
1E!
1t
1F
1=!
0e
1_
1G!
1u
1n
0j
1}
1r
0k
#65000
1#
1T
1U
0/
1h!
1i!
1k!
1m!
1n!
0o!
1+
1,
1.
1(
1)
0*
#70000
b11000000 $
b10000000 $
0#
0Y!
1X!
0T
0U
1/
0.!
0s
1i
1Y
0Q
0?
00!
0E!
0t
0F
0d
1Z
0=!
0@
0G!
0u
0n
1[
0b
0}
0r
1F!
19!
1,!
1e
0_
1G
1F
1G!
1=!
10!
1j
1d
1}
1n
1k
1r
#75000
1#
1T
1U
0/
1o!
1*
#80000
b110000000 $
b100000000 $
0#
0X!
1W!
0T
0U
1/
1\
0[
1$!
1L
1B
0F!
09!
0,!
0e
0G
0F
1'!
1M
1C
0G!
0=!
00!
0j
0}
0n
1)!
16!
1j
0k
0r
1k
#85000
1#
1T
1U
0/
0h!
0i!
1j!
0k!
1l!
0m!
0n!
0+
0,
1-
0.
1'
0(
0)
